Motor Vehicle Collisions - 3 Results
…
# group by DayOfWeek and HourOfDay to represent
summarized_data2 <- data2 %>%
  group_by(DayOfWeek, HourOfDay) %>%
  summarise(Frequency = n())

`summarise()` has grouped output by 'DayOfWeek'. You can override using the
`.groups` argument.

Code

summarized_data2

# A tibble: 168 × 3
# Groups:   DayOfWeek [7]
   DayOfWeek HourOfDay Frequency
   <fct>         <int>     <int>
 1 Sunday            0      9380
 2 Sunday            1      5064
 3 Sunday            2      3793
 4 Sunday            3      3317
 5 Sunday            4      3698
 6 Sunday            5      4155
 7 Sunday            6      6608
 8 Sunday            7      9063
 9 Sunday            8     16069
10 Sunday            9     15235
# ℹ 158 more rows
…
